<svg width="84" height="60" viewBox="0 0 84 60" fill="none" xmlns="http://www.w3.org/2000/svg">
<path d="M53.7328 31.6256C53.5754 31.1338 53.1545 30.7751 52.6482 30.7008L45.8699 29.7052L42.8384 23.4968C42.6119 23.0329 42.1445 22.7394 41.6328 22.7394C41.1211 22.7394 40.6538 23.0331 40.4273 23.4968L37.3958 29.7052L30.6173 30.7008C30.1109 30.7751 29.69 31.1336 29.5319 31.6256C29.3738 32.1174 29.5057 32.6575 29.872 33.0184L34.777 37.8509L33.6191 44.6746C33.5327 45.1843 33.7401 45.6994 34.1539 46.0035C34.5678 46.3073 35.1165 46.3475 35.5696 46.1069L41.6325 42.8851L47.6954 46.1069C47.8922 46.2114 48.107 46.2629 48.3209 46.2629C48.5998 46.2629 48.8771 46.1754 49.1113 46.0034C49.5253 45.6993 49.7326 45.1843 49.646 44.6744L48.4881 37.8508L53.3931 33.0184C53.7591 32.6573 53.8909 32.1174 53.7328 31.6256ZM46.1053 36.4036C45.7883 36.7158 45.6439 37.1657 45.7189 37.6065L46.5359 42.4206L42.2585 40.1477C41.8667 39.9397 41.399 39.9397 41.0074 40.1477L36.73 42.4206L37.5468 37.6063C37.6218 37.1655 37.4771 36.7159 37.1604 36.4038L33.6999 32.9946L38.4823 32.2922C38.9202 32.228 39.2988 31.95 39.4945 31.549L41.6333 27.169L43.7722 31.549C43.9682 31.9499 44.3464 32.228 44.7844 32.2922L49.5666 32.9946L46.1053 36.4036Z" fill="white"/>
<path d="M19.047 23.7517C24.5284 23.7517 29.6749 20.3008 31.6061 14.7881C31.8538 14.0807 31.4874 13.3042 30.7874 13.0539C27.4536 11.8607 23.8611 12.0453 20.6647 13.5705C21.4749 12.4968 22.3633 11.4644 23.3336 10.4839C23.8585 9.95336 23.8585 9.09288 23.3336 8.56246C22.8084 8.03187 21.9572 8.03187 21.4323 8.56246C20.7395 9.26268 20.0865 9.98804 19.4686 10.7333C19.3214 6.69719 17.3925 2.76972 13.8926 0.252396C13.2874 -0.182692 12.4481 -0.0396912 12.0178 0.571601C9.9565 3.49936 9.14645 7.06307 9.73711 10.6064C10.2839 13.8856 11.9711 16.782 14.5149 18.8473C14.0731 19.8818 13.687 20.9349 13.3539 22.0017C13.0903 21.4057 12.7825 20.8246 12.4304 20.2631C10.5263 17.2285 7.56718 15.1249 4.09802 14.3397C3.75048 14.261 3.38539 14.3253 3.08436 14.5182C2.78318 14.7112 2.57046 15.0173 2.4924 15.3689C0.944515 22.3553 5.10403 29.3114 11.8348 31.2446C11.801 32.6849 11.8612 34.1266 12.0113 35.5606C11.6995 35.2805 11.3743 35.0126 11.0339 34.7596C8.16923 32.6315 4.65697 31.7584 1.14162 32.3005C0.407521 32.4137 -0.0964611 33.1069 0.0155891 33.8487C0.552096 37.4009 2.42524 40.5292 5.28991 42.6573C7.59971 44.3733 10.3309 45.2734 13.1446 45.2734C13.595 45.2734 14.0475 45.2481 14.5006 45.2017C15.0503 46.4928 15.6844 47.7559 16.4035 48.9817C12.2443 47.6339 7.51238 48.3708 3.88888 51.3699C3.31464 51.8454 3.23008 52.7014 3.70056 53.2822C5.95294 56.0621 9.14174 57.7893 12.6795 58.1454C13.1292 58.1907 13.5771 58.2129 14.0228 58.2129C16.7685 58.2129 19.4175 57.3598 21.667 55.752C23.1802 57.2514 24.8323 58.6051 26.585 59.7748C26.813 59.927 27.0702 59.9998 27.3246 59.9998C27.7611 59.9998 28.1891 59.7851 28.4477 59.3897C28.8567 58.7634 28.6861 57.9205 28.0667 57.507C26.3742 56.3776 24.7818 55.0626 23.3336 53.5991C20.0948 50.3256 17.7501 46.4863 16.2952 42.3936C22.679 39.9069 26.2304 32.8265 24.2765 26.0722C24.0681 25.3521 23.3218 24.939 22.6089 25.1492C19.1965 26.1576 16.377 28.4489 14.6696 31.6007C14.6153 31.701 14.5662 31.8029 14.5146 31.9042C14.5273 29.0134 14.9423 26.1243 15.7613 23.331C16.8545 23.6145 17.9571 23.7517 19.047 23.7517ZM11.7752 28.3692C7.32275 26.6976 4.49353 22.1881 4.89619 17.4048C7.06385 18.2153 8.90072 19.7115 10.1595 21.718C11.4182 23.7245 11.9744 26.0421 11.7752 28.3692ZM6.88236 40.4677C4.9884 39.0605 3.63746 37.1055 2.98646 34.8643C3.04354 34.8635 3.10046 34.8628 3.15755 34.8628C7.83714 34.8628 12.0087 38.0048 13.3367 42.5537C11.0256 42.5925 8.77631 41.8749 6.88236 40.4677ZM12.9461 55.4412C10.607 55.2058 8.45919 54.2192 6.76901 52.626C10.8161 50.1138 16.0732 50.6425 19.5512 53.9124C17.5834 55.1372 15.2848 55.6762 12.9461 55.4412ZM17.0279 32.9057C18.1568 30.8218 19.895 29.2095 22.0065 28.2599C22.712 33.0071 20.1749 37.691 15.8377 39.6478C15.4915 37.3384 15.8992 34.9896 17.0279 32.9057ZM21.7719 16.0457C23.8936 15.0227 26.2368 14.7426 28.4988 15.2209C26.3236 19.4885 21.5559 21.788 16.9049 20.811C17.9607 18.7329 19.6504 17.0689 21.7719 16.0457ZM12.3883 10.1547C11.9976 7.81178 12.3744 5.45783 13.4509 3.39071C16.9134 6.67647 17.7912 11.9421 15.585 16.1933C13.8979 14.5968 12.7787 12.4975 12.3883 10.1547Z" fill="white"/>
<path d="M70.1204 45.2732C72.934 45.2732 75.6657 44.373 77.9751 42.6571C80.8397 40.5289 82.7131 37.4007 83.2495 33.8483C83.3615 33.1065 82.8572 32.4136 82.1234 32.3001C78.0477 31.6711 74.1142 32.9913 71.253 35.5693C71.4035 34.1322 71.4642 32.6874 71.4302 31.2441C74.5801 30.3417 77.2578 28.3286 79.0251 25.5117C80.9289 22.4771 81.5495 18.8747 80.7728 15.3684C80.6108 14.6359 79.8919 14.1757 79.1674 14.3393C75.6982 15.1243 72.7389 17.2281 70.8352 20.2627C70.4829 20.8241 70.1752 21.4054 69.9114 22.0014C69.5785 20.9346 69.1923 19.8815 68.7504 18.8468C74.1926 14.4228 75.3489 6.3959 71.2478 0.57111C71.0411 0.277381 70.7275 0.0788214 70.3759 0.0191551C70.024 -0.0413332 69.6636 0.0428244 69.373 0.251903C66.4763 2.3353 64.5558 5.43417 63.965 8.97766C63.8679 9.56068 63.8123 10.144 63.7902 10.7252C63.1741 9.98262 62.5233 9.25988 61.8328 8.56213C61.3078 8.03155 60.4566 8.03138 59.9315 8.56213C59.4065 9.09272 59.4065 9.9532 59.9315 10.4836C60.9017 11.4643 61.7902 12.4965 62.6002 13.5702C59.4041 12.0451 55.8115 11.8602 52.4778 13.0535C51.7779 13.3039 51.4115 14.0804 51.6591 14.7878C53.5903 20.301 58.7362 23.7514 64.2182 23.7514C65.3075 23.7514 66.4104 23.6143 67.5037 23.3308C68.324 26.1282 68.7389 29.0221 68.7506 31.9173C67.1388 28.7486 64.2989 26.2255 60.6565 25.1491C59.9437 24.9383 59.1974 25.3517 58.9889 26.072C57.991 29.521 58.3817 33.1562 60.0891 36.308C61.6162 39.1269 64.0346 41.2545 66.9695 42.3946C65.5145 46.4869 63.1697 50.3258 59.9315 53.5991C58.484 55.0625 56.8912 56.3771 55.1984 57.507C54.579 57.9205 54.4082 58.7634 54.8174 59.3897C55.0758 59.7853 55.5041 59.9998 55.9405 59.9998C56.1948 59.9998 56.4521 59.927 56.6801 59.7748C58.4335 58.6046 60.0857 57.2509 61.5989 55.7513C63.9074 57.3987 66.5878 58.2059 69.2551 58.2059C73.111 58.2059 76.9369 56.5255 79.565 53.2822C79.7909 53.0034 79.8979 52.6452 79.8626 52.2866C79.8273 51.9281 79.6525 51.5984 79.3767 51.3699C76.626 49.0934 73.1627 48.0361 69.6252 48.3917C68.6771 48.4872 67.7555 48.6841 66.8688 48.9701C67.5851 47.748 68.217 46.4889 68.7649 45.2017C69.2175 45.2481 69.6699 45.2732 70.1204 45.2732ZM78.3702 17.4056C78.5691 19.7327 78.0132 22.0502 76.7545 24.0567C75.4956 26.0631 73.6587 27.5594 71.4912 28.3699C71.0885 23.5867 73.9178 19.0771 78.3702 17.4056ZM80.2776 34.864C78.933 39.4678 74.6758 42.6257 69.929 42.5526C71.2736 37.9487 75.5281 34.7849 80.2776 34.864ZM54.7665 15.2208C57.0284 14.7423 59.3713 15.0227 61.4929 16.0456C63.6145 17.0685 65.3044 18.7327 66.36 20.8107C61.7079 21.7867 56.9414 19.4883 54.7665 15.2208ZM67.6792 16.193C66.6026 14.1259 66.226 11.772 66.6166 9.42902C67.0072 7.08625 68.1263 4.98692 69.8134 3.39039C72.0196 7.64149 71.1417 12.9073 67.6792 16.193ZM69.8911 51.0955C72.2312 50.8602 74.5284 51.3993 76.4962 52.6245C73.0184 55.8938 67.761 56.423 63.714 53.9109C65.4042 52.3175 67.552 51.3311 69.8911 51.0955ZM67.4263 39.6483C65.3146 38.6989 63.5766 37.0866 62.4477 35.0027C61.3187 32.9188 60.9113 30.57 61.2574 28.2604C65.5945 30.2172 68.1318 34.9011 67.4263 39.6483Z" fill="white"/>
</svg>
