<svg width="30" height="26" viewBox="0 0 30 26" fill="none" xmlns="http://www.w3.org/2000/svg">
<path d="M28.6111 11.0299C28.5998 11.0141 28.5872 10.9993 28.5732 10.9857C27.3001 9.49014 25.3678 8.68909 23.3852 8.83487L21.5049 6.604C20.9708 5.97215 20.0155 5.88241 19.3685 6.40326L19.1244 6.604C18.5683 6.15031 17.7833 6.08172 17.1539 6.43194C16.0692 5.44496 14.5709 5.76639 13.1409 6.07347C12.5064 6.20969 11.8865 6.34113 11.3643 6.34113C10.437 6.33754 9.75373 5.856 9.67198 3.97883L10.0478 4.00751C11.2496 4.1031 12.4661 4.19989 13.2946 3.6347C13.6594 3.38479 13.9228 3.01725 14.0389 2.59635C14.1589 2.1666 14.1328 1.71022 13.9644 1.29631C13.7351 0.721086 13.2489 0.280709 12.6455 0.101416C12.2291 -0.0212995 11.7868 -0.0328899 11.3643 0.0679588C10.9086 0.174364 10.4884 0.393686 10.1442 0.704835L10.1259 0.722758C9.52922 1.26404 9.08875 2.11122 9.02774 3.30611C7.55747 3.25473 6.31536 3.50327 6.1726 5.30397L5.84926 9.32596C5.49493 9.38583 5.16836 9.55198 4.91463 9.80153C4.66731 10.0431 4.50021 10.3521 4.43511 10.6881H4.11544C3.71297 10.6881 3.32704 10.8451 3.04293 11.1243C2.76028 11.4018 2.60142 11.7778 2.60124 12.1698V15.0626C2.02929 15.4583 1.53056 15.9466 1.12663 16.5067C-0.831948 19.2223 -0.171788 22.9787 2.60124 24.8967C5.37426 26.8147 9.20997 26.1682 11.1685 23.4526C13.1271 20.737 12.467 16.9807 9.69394 15.0626V12.1698C9.69296 11.7769 9.53276 11.4004 9.24859 11.1231C8.96466 10.8435 8.57873 10.686 8.17608 10.6857H7.8564C7.79283 10.3586 7.63244 10.0569 7.39519 9.81826L7.37688 9.79914C7.13554 9.56243 6.82825 9.40077 6.4935 9.33433L6.80586 5.35057C6.90591 4.10908 7.86128 3.90833 9.01798 3.9394C9.09729 6.35069 10.0563 6.96845 11.357 6.96845C11.9561 6.97084 12.6052 6.83103 13.2702 6.68884C14.5038 6.42477 15.7971 6.14756 16.6512 6.84657C16.2106 7.38433 16.1445 8.12922 16.484 8.7333L16.24 8.93285C15.5948 9.45591 15.5032 10.3914 16.035 11.0251L17.9165 13.2572C17.394 15.1358 17.8308 17.1458 19.0891 18.6533C19.1003 18.6691 19.1129 18.6839 19.1269 18.6975C21.2864 21.2354 25.1309 21.5953 27.7423 19.504C27.7585 19.493 27.7736 19.4807 27.7875 19.467C30.3791 17.3522 30.7466 13.5873 28.6111 11.0299ZM3.4529 22.6277C1.96462 21.1706 1.96426 18.8079 3.45217 17.3504C4.94007 15.8929 7.35273 15.8925 8.84106 17.3496C9.55686 18.0486 9.95865 18.9981 9.95749 19.988C9.95768 20.9778 9.55637 21.927 8.84179 22.627C7.35389 24.0845 4.94123 24.0848 3.4529 22.6277ZM11.6413 19.6686C11.8207 22.641 9.50549 25.193 6.47032 25.3686V24.3398C8.79475 24.171 10.5936 22.2765 10.5968 19.994C10.6002 17.584 8.60789 15.6276 6.14698 15.6243L6.15796 15.6147C3.82718 15.6179 1.89264 17.3795 1.72029 19.6558C1.53831 22.0592 3.38036 24.152 5.83462 24.3303V25.3591C3.14261 25.2033 0.962093 23.1608 0.683533 20.5341C0.369407 17.5725 2.5664 14.9222 5.59059 14.6146L5.66014 14.6086H5.71139H5.72481H5.76141H5.79436H5.8639H5.91393H5.93955H6.06889H6.23971H6.36904H6.44591H6.51546H6.52278L6.6448 14.6182L6.71435 14.6242C9.39659 14.897 11.4822 17.0323 11.6413 19.6686ZM8.17486 11.319C8.40565 11.3181 8.62735 11.407 8.79103 11.5664C8.95496 11.7262 9.04714 11.9433 9.04726 12.1698V14.6791C8.335 14.3052 7.55411 14.0733 6.74973 13.9968H6.72167H6.6936H6.66554H6.63748H6.60941H6.58135H6.55329H6.48618H6.44103H5.86146H5.81632H5.74921H5.72115H5.69308H5.66502H5.63696H5.60889H5.58083H5.55277C4.74753 14.0729 3.96579 14.3048 3.25279 14.6791V12.1746C3.25285 11.9477 3.34504 11.7302 3.50902 11.57C3.67069 11.4109 3.88995 11.3207 4.1191 11.319H8.17486ZM6.91933 10.2436L6.93519 10.258C7.0533 10.3787 7.14103 10.5248 7.19142 10.6846H5.10375C5.15604 10.5182 5.24901 10.3668 5.37463 10.2436C5.80253 9.82907 6.49149 9.82907 6.91933 10.2436ZM10.5578 1.18279L10.5737 1.16965C10.8373 0.930968 11.1591 0.762668 11.5083 0.680937C11.8191 0.607511 12.1442 0.616592 12.4502 0.707225C12.8666 0.82994 13.2028 1.13231 13.3629 1.52811C13.4796 1.81369 13.498 2.12873 13.4154 2.42548C13.3399 2.70377 13.1672 2.94728 12.9273 3.11373C12.2892 3.54987 11.1874 3.46264 10.099 3.37541L9.67076 3.34196C9.72079 2.33347 10.0783 1.62371 10.5578 1.18279ZM17.3186 7.08794L17.3308 7.07957C17.7015 6.78551 18.2237 6.7594 18.623 7.01505L17.0099 8.31867C16.8289 7.88636 16.9536 7.38893 17.3186 7.08794ZM16.5316 10.626C16.2276 10.2598 16.2821 9.72207 16.6536 9.42156L17.1258 9.03919L19.2892 7.29107C19.3039 7.28109 19.3178 7.26992 19.3306 7.25761L19.7821 6.88719C20.156 6.58943 20.7051 6.64278 21.012 7.00668L22.6397 8.9436H22.6214H22.6104C21.6354 9.13777 20.7239 9.56279 19.9554 10.1815C19.9405 10.1914 19.9267 10.2027 19.9139 10.215C19.1415 10.8425 18.5386 11.6463 18.1581 12.5558L16.5316 10.626ZM27.6045 18.7931L26.9334 17.9973L26.9541 17.9614C28.6348 16.3894 28.799 13.8162 27.3311 12.0515C27.3199 12.0357 27.3073 12.0209 27.2933 12.0073C25.7296 10.1759 22.9529 9.916 21.0633 11.4242C21.0471 11.4352 21.032 11.4476 21.0181 11.4612C19.148 12.9926 18.8826 15.7118 20.4227 17.5623C20.4339 17.5782 20.4466 17.5929 20.4605 17.6066C21.952 19.352 24.5631 19.6814 26.4575 18.3629L27.1286 19.1587C24.7754 20.8442 21.4885 20.4413 19.632 18.2398C18.4656 16.8539 18.0796 14.9906 18.6022 13.2691C18.612 13.2607 18.612 13.2524 18.612 13.2428C18.8644 12.4224 19.3142 11.6733 19.9236 11.0586L19.9407 11.0406L19.9761 11.0048L19.9944 10.9869L20.0127 10.9689L20.031 10.951L20.0493 10.9331L20.0676 10.9164L20.0859 10.8996L20.1042 10.8829L20.1189 10.8698L20.1372 10.853L20.1555 10.8363L20.1872 10.8076L20.2018 10.7957L20.2994 10.7132L20.3544 10.669L20.3934 10.638L20.4093 10.626L20.4495 10.5949L20.4605 10.5866L20.4703 10.5794L20.491 10.5639L20.5117 10.5483L20.5325 10.5328L20.5532 10.5173L20.5911 10.4898L20.6118 10.4754L20.6533 10.4468L20.674 10.4324C21.4389 9.90292 22.3293 9.57384 23.2607 9.47652C23.277 9.47772 23.2933 9.47772 23.3095 9.47652C25.1366 9.29854 26.9342 10.0235 28.1035 11.4099C29.9595 13.6122 29.7407 16.8496 27.6045 18.7931ZM26.2843 17.7201C26.2833 17.7208 26.2825 17.7215 26.2816 17.7222C24.6577 19.0341 22.2553 18.8085 20.9156 17.2182C20.9149 17.2173 20.9142 17.2165 20.9134 17.2156C19.5738 15.6253 19.8042 13.2726 21.4281 11.9607C22.2069 11.33 23.2102 11.029 24.2161 11.1243L24.2173 11.1279C25.2243 11.2188 26.1526 11.6991 26.7967 12.4626C26.7975 12.4634 26.7982 12.4643 26.7989 12.4652C28.1386 14.0555 27.9081 16.4081 26.2843 17.7201Z" fill="#333333"/>
</svg>
